com\cxj\service\impl\CategoryServiceImpl.class
com\cxj\dataObject\ProductInfo.class
com\cxj\repository\ProductCategoryRepository.class
com\cxj\service\impl\ProductServiceImpl.class
com\cxj\vo\ProductVO.class
com\cxj\MyApp.class
com\cxj\repository\ProductInfoRepository.class
com\cxj\vo\ResultVo.class
com\cxj\service\CategoryService.class
com\cxj\dataObject\ProductCategory.class
com\cxj\vo\ProductInfoVO.class
com\cxj\enums\ProductStatusEnum.class
com\cxj\service\ProductService.class
com\cxj\controller\BuyerProductController.class
