<<<<<<< HEAD
D:\workspace\onlineordering\src\test\java\com\cxj\service\CategoryServiceImplTest.java
D:\workspace\onlineordering\src\test\java\com\cxj\service\ProductServiceImplTest.java
D:\workspace\onlineordering\src\test\java\com\cxj\repository\ProductCategoryRepositoryTest.java
D:\workspace\onlineordering\src\test\java\com\cxj\repository\ProductInfoRepositoryTest.java
D:\workspace\onlineordering\src\test\java\com\cxj\AppTest.java
=======
/Users/hushuang/yiyi/workspace/springboot-weixin/src/test/java/com/cxj/AppTest.java
/Users/hushuang/yiyi/workspace/springboot-weixin/src/test/java/com/cxj/repository/OrderServiceImplTest.java
/Users/hushuang/yiyi/workspace/springboot-weixin/src/test/java/com/cxj/repository/ProductCategoryRepositoryTest.java
/Users/hushuang/yiyi/workspace/springboot-weixin/src/test/java/com/cxj/repository/OrderMasterRepositoryTest.java
/Users/hushuang/yiyi/workspace/springboot-weixin/src/test/java/com/cxj/service/CategoryServiceImplTest.java
/Users/hushuang/yiyi/workspace/springboot-weixin/src/test/java/com/cxj/repository/OrderDetailRepositoryTest.java
/Users/hushuang/yiyi/workspace/springboot-weixin/src/test/java/com/cxj/repository/ProductInfoRepositoryTest.java
/Users/hushuang/yiyi/workspace/springboot-weixin/src/test/java/com/cxj/service/ProductServiceImplTest.java
>>>>>>> dev
